{
  "defaultSeverity": "error",
  "extends": [
    "tslint:recommended",
    "tslint-config-standard",
    "tslint-react",
    "tslint-config-prettier"
  ],
  "jsRules": {},
  "rules": {
    "array-type": [false],
    "ordered-imports": false,
    "object-literal-sort-keys": false,
    "member-ordering": false,
    "jsx-no-lambda": false,
    "jsx-boolean-value": false,
    "no-empty-interface": false,
    "interface-name": false,
    "semicolon": [true, "always", "ignore-bound-class-methods"],
    "trailing-comma": true,
    "max-line-length": [true, 80],
    "no-unused-expression": false
  },
  "rulesDirectory": []
}
