{
  "packages": [
    "packages/*",
    "services/*"
  ],
  "version": "independent",
  "useWorkspaces": true,
  "npmClient": "yarn",
  "publishConfig": {
    "access": "public"
  },
  "command": {
    "version": {
      "allowBranch": [
        "master"
      ]
    },
    "publish": {
      "allowBranch": [
        "master"
      ],
      "npmClient": "npm"
    }
  }
}
