// Jest Snapshot v1, https://goo.gl/fbAQLP

exports[`console auth controller should match the event log 1`] = `
Array [
  Object {
    "aggregateId": "2",
    "eventId": 1,
    "payload": Object {
      "workspaceId": "1",
    },
    "rowId": "UserAggregate:1",
    "type": "user.created",
  },
  Object {
    "aggregateId": "2",
    "eventId": 2,
    "payload": Object {},
    "rowId": "UserAggregate:1",
    "type": "ownership_claimed",
  },
  Object {
    "aggregateId": "1",
    "eventId": 3,
    "payload": Object {
      "requestedBy": "2",
      "workspaceName": "test-workspace",
    },
    "rowId": "WorkspaceRequestAggregate",
    "type": "workspace.request.opened",
  },
  Object {
    "aggregateId": "1",
    "eventId": 4,
    "payload": Object {
      "confirmedBy": "root",
    },
    "rowId": "WorkspaceRequestAggregate",
    "type": "workspace.request.confirmed",
  },
  Object {
    "aggregateId": "1",
    "eventId": 5,
    "payload": Object {
      "createdBy": "2",
      "name": "test-workspace",
    },
    "rowId": "WorkspaceAggregate",
    "type": "workspace.created",
  },
  Object {
    "aggregateId": "2",
    "eventId": 6,
    "payload": Object {},
    "rowId": "UserAggregate:1",
    "type": "user.logged_in",
  },
  Object {
    "aggregateId": "3",
    "eventId": 7,
    "payload": Object {
      "createdBy": "2",
      "workspaceId": "1",
    },
    "rowId": "ResourceAggregate:1",
    "type": "resource.created",
  },
  Object {
    "aggregateId": "3",
    "eventId": 8,
    "payload": Object {
      "changedBy": "2",
      "name": "test resource",
    },
    "rowId": "ResourceAggregate:1",
    "type": "resource.name_set",
  },
  Object {
    "aggregateId": "3",
    "eventId": 9,
    "payload": Object {
      "changedBy": "2",
      "description": "test description",
    },
    "rowId": "ResourceAggregate:1",
    "type": "resource.description_set",
  },
  Object {
    "aggregateId": "2",
    "eventId": 10,
    "payload": Object {},
    "rowId": "UserAggregate:1",
    "type": "user.logged_in",
  },
  Object {
    "aggregateId": "4",
    "eventId": 11,
    "payload": Object {
      "createdBy": "2",
      "workspaceId": "1",
    },
    "rowId": "ResourceAggregate:1",
    "type": "resource.created",
  },
  Object {
    "aggregateId": "4",
    "eventId": 12,
    "payload": Object {
      "changedBy": "2",
      "name": "another test resource",
    },
    "rowId": "ResourceAggregate:1",
    "type": "resource.name_set",
  },
  Object {
    "aggregateId": "4",
    "eventId": 13,
    "payload": Object {
      "changedBy": "2",
      "description": "another test description",
    },
    "rowId": "ResourceAggregate:1",
    "type": "resource.description_set",
  },
  Object {
    "aggregateId": "2",
    "eventId": 14,
    "payload": Object {},
    "rowId": "UserAggregate:1",
    "type": "user.logged_in",
  },
  Object {
    "aggregateId": "5",
    "eventId": 15,
    "payload": Object {
      "createdBy": "2",
      "dateEnd": "2030-05-15T00:00:00.000Z",
      "dateStart": "2030-05-10T00:00:00.000Z",
      "notes": "",
      "workspaceId": "1",
    },
    "rowId": "ReservationAggregate:1",
    "type": "reservation.created",
  },
  Object {
    "aggregateId": "5",
    "eventId": 16,
    "payload": Object {
      "assignedTo": "2",
      "changedBy": "2",
    },
    "rowId": "ReservationAggregate:1",
    "type": "reservation.assigned",
  },
  Object {
    "aggregateId": "5",
    "eventId": 17,
    "payload": Object {
      "changedBy": "2",
      "resource": "3",
    },
    "rowId": "ReservationAggregate:1",
    "type": "reservation.resource_added",
  },
  Object {
    "aggregateId": "5",
    "eventId": 18,
    "payload": Object {
      "changedBy": "2",
      "resource": "4",
    },
    "rowId": "ReservationAggregate:1",
    "type": "reservation.resource_added",
  },
  Object {
    "aggregateId": "2",
    "eventId": 19,
    "payload": Object {},
    "rowId": "UserAggregate:1",
    "type": "user.logged_in",
  },
  Object {
    "aggregateId": "6",
    "eventId": 20,
    "payload": Object {
      "createdBy": "2",
      "dateEnd": "2030-05-15T00:00:00.000Z",
      "dateStart": "2030-05-10T00:00:00.000Z",
      "notes": "",
      "workspaceId": "1",
    },
    "rowId": "ReservationAggregate:1",
    "type": "reservation.created",
  },
  Object {
    "aggregateId": "6",
    "eventId": 21,
    "payload": Object {
      "assignedTo": "2",
      "changedBy": "2",
    },
    "rowId": "ReservationAggregate:1",
    "type": "reservation.assigned",
  },
  Object {
    "aggregateId": "6",
    "eventId": 22,
    "payload": Object {
      "changedBy": "2",
      "resource": "3",
    },
    "rowId": "ReservationAggregate:1",
    "type": "reservation.resource_added",
  },
  Object {
    "aggregateId": "2",
    "eventId": 23,
    "payload": Object {},
    "rowId": "UserAggregate:1",
    "type": "user.logged_in",
  },
  Object {
    "aggregateId": "5",
    "eventId": 24,
    "payload": Object {
      "changedBy": "2",
    },
    "rowId": "ReservationAggregate:1",
    "type": "reservation.state_changed.confirmed",
  },
  Object {
    "aggregateId": "2",
    "eventId": 25,
    "payload": Object {},
    "rowId": "UserAggregate:1",
    "type": "user.logged_in",
  },
  Object {
    "aggregateId": "6",
    "eventId": 26,
    "payload": Object {
      "changedBy": "2",
      "reason": "some meaningful reson",
    },
    "rowId": "ReservationAggregate:1",
    "type": "reservation.state_changed.rejected",
  },
  Object {
    "aggregateId": "2",
    "eventId": 27,
    "payload": Object {},
    "rowId": "UserAggregate:1",
    "type": "user.logged_in",
  },
  Object {
    "aggregateId": "1",
    "eventId": 28,
    "payload": Object {
      "changedBy": "2",
    },
    "rowId": "WorkspaceAggregate",
    "type": "workspace.deleted",
  },
]
`;
